Nearest Neighbors
…
def all_distances(training, point):
    """The distance between p (an array of numbers) and the numbers in row i of attribute_table."""
    attributes = training.drop('Class')
    def distance_from_point(row):
        return distance(point, np.array(row))
    return attributes.apply(distance_from_point)

def table_with_distances(training, point):
    """A copy of the training table with the distance from each row to array p."""
    return training.with_column('Distance', all_distances(training, point))

def closest(training, point, k):
    """A table containing the k closest rows in the training table to array p."""
    with_dists = table_with_distances(training, point)
    sorted_by_distance = with_dists.sort('Distance')
    topk = sorted_by_distance.take(np.arange(k))
    return topk

def majority(topkclasses):
    """1 if the majority of the "Class" column is 1s, and 0 otherwise."""
    ones = topkclasses.where('Class', are.equal_to(1)).num_rows
    zeros = topkclasses.where('Class', are.equal_to(0)).num_rows
    if ones > zeros:
        return 1
    else:
        return 0

def classify(training, p, k):
    """Classify an example with attributes p using k-nearest neighbor classification with the given training table."""
    closestk = closest(training, p, k)
    topkclasses = closestk.select('Class')
    return majority(topkclasses)

Nearest Neighbors

In this section we’ll develop the nearest neighbor method of classification. Just focus on the ideas for now and don’t worry if some of the code is mysterious. Later in the chapter we’ll see how to organize our ideas into code that performs the classification.

Chronic kidney disease

Let’s work through an example.  We’re going to work with a data set that was collected to help doctors diagnose chronic kidney disease (CKD).  Each row in the data set represents a single patient who was treated in the past and whose diagnosis is known.  For each patient, we have a bunch of measurements from a blood test.  We’d like to find which measurements are most useful for diagnosing CKD, and develop a way to classify future patients as “has CKD” or “doesn’t have CKD” based on their blood test results.

ckd = Table.read_table(path_data + 'ckd.csv').relabeled('Blood Glucose Random', 'Glucose')
ckd

            Age Blood Pressure Specific Gravity Albumin Sugar Red Blood Cells Pus Cell Pus Cell clumps Bacteria Glucose Blood Urea Serum Creatinine Sodium Potassium Hemoglobin Packed Cell Volume White Blood Cell Count Red Blood Cell Count Hypertension Diabetes Mellitus Coronary Artery Disease Appetite Pedal Edema Anemia Class

            48   70             1.005            4       0     normal          abnormal present         notpresent 117     56         3.8              111    2.5       11.2       32                 6700                   3.9                  yes          no                no                      poor     yes         yes    1    

            53   90             1.02             2       0     abnormal        abnormal present         notpresent 70      107        7.2              114    3.7       9.5        29                 12100                  3.7                  yes          yes               no                      poor     no          yes    1    

            63   70             1.01             3       0     abnormal        abnormal present         notpresent 380     60         2.7              131    4.2       10.8       32                 4500                   3.8                  yes          yes               no                      poor     yes         no     1    

            68   80             1.01             3       2     normal          abnormal present         present    157     90         4.1              130    6.4       5.6        16                 11000                  2.6                  yes          yes               yes                     poor     yes         no     1    

            61   80             1.015            2       0     abnormal        abnormal notpresent      notpresent 173     148        3.9              135    5.2       7.7        24                 9200                   3.2                  yes          yes               yes                     poor     yes         yes    1    

            48   80             1.025            4       0     normal          abnormal notpresent      notpresent 95      163        7.7              136    3.8       9.8        32                 6900                   3.4                  yes          no                no                      good     no          yes    1    

            69   70             1.01             3       4     normal          abnormal notpresent      notpresent 264     87         2.7              130    4         12.5       37                 9600                   4.1                  yes          yes               yes                     good     yes         no     1    

            73   70             1.005            0       0     normal          normal   notpresent      notpresent 70      32         0.9              125    4         10         29                 18900                  3.5                  yes          yes               no                      good     yes         no     1    

            73   80             1.02             2       0     abnormal        abnormal notpresent      notpresent 253     142        4.6              138    5.8       10.5       33                 7200                   4.3                  yes          yes               yes                     good     no          no     1    

            46   60             1.01             1       0     normal          normal   notpresent      notpresent 163     92         3.3              141    4         9.8        28                 14600                  3.2                  yes          yes               no                      good     no          no     1    

... (148 rows omitted)
…
